Row,z_1,z_2
0,1.5394979248155185,-1.238634832570626
1,1.7537365262435316,-1.1555531059237725
2,1.6240619378223895,-1.241826465705093
3,,
4,1.9981832873244065,-0.5253644425765354
5,1.8831594603097883,-0.6340459649594254
6,1.9132467398793196,-0.4804182401211216
7,,
8,-3.0906079865772553,0.966538003234954
9,-2.848595662987205,1.5444900145897729
10,-2.998180869915803,0.8975394102846632
11,,
12,-3.2662854825507606,1.1013521919435416
13,-3.4870458118697956,1.342298811664835
14,-3.320577134805658,1.4722886058711893
15,-3.2606034900502365,1.4976295941784858
16,-3.1256810616251083,1.4817248311396651
17,,
18,-1.3534035606907922,2.0815899092672527
19,-1.1394865806684273,2.0073437951802036
20,-1.969822884281478,1.7218388448298805
21,,
22,-0.8614248385750446,1.9890539699755443
23,-0.45986345709028337,2.0123066621746553
24,-0.2467535939032358,1.9603570862674486
