Row,z_1,z_2
0,1.9981832873244065,-0.5253644425765354
1,2.100211076268629,-0.9594054773000752
2,2.165374787857234,-0.7103904352292707
3,,
4,-2.533273626979086,1.7158356865404187
5,-2.4813714261396758,1.709147046097547
6,-2.937242296176599,1.5106253237677776
7,-2.604247639347013,1.724953727436532
