Row,z_1,z_2
0,1.6673196066419838,-2.6894697722676213
1,2.2431730322625976,-2.7210750314697276
2,1.7182955246507405,-2.790765775627346
3,,
4,1.6673196066419838,-2.6894697722676213
5,1.6590407381786572,-2.3222301144927733
6,2.4112985083988203,-2.0325378307980144
7,2.4090487687460866,-2.174044509667494
8,2.359932687034069,-2.318793850462568
9,2.2707796553906845,-2.553729148421411
10,,
11,2.409307742184504,-1.9393699345276465
12,2.411953401001651,-2.0196706129675803
13,1.6590407381786572,-2.3222301144927733
14,0.8709735049663394,-2.0951882427635797
15,0.655332021062917,-1.8940262510473345
16,-0.021871993799346505,-1.821479023269788
17,-0.30152522751730776,-1.1076906250779681
18,-0.582310012347913,-1.0898840668570113
19,-0.8239370832516884,-1.0733112026639453
20,-1.5552104808070963,-0.5306139977366893
21,-1.9581629698416598,-0.002554257010548563
22,-2.0905598684353084,0.17393076021714737
23,-2.5318069088978965,0.566803683750839
24,-2.3209675296753667,0.6853257752098509
25,-0.7463758457449126,1.8173417580695845
26,-0.18499580716952285,1.7965577198887805
27,0.3169774289764415,1.4758740089475504
28,0.547601226938973,1.347051896315034
29,0.9626604782946495,1.0708979454782783
30,1.3186436824983925,0.6191496614115714
31,1.5757458986977886,0.15555109020838007
32,1.8537336063052732,-0.20868843332885195
33,2.26287650450928,-0.4892163783713663
34,2.163345446823447,-1.1568945753789892
35,2.288636885411159,-1.557242572782563
36,2.3502644732245708,-1.6583688826263172
37,2.3938053988135937,-1.7859946875107207
38,2.4079127136252905,-1.8772432274271302
39,,
40,-0.7463758457449126,1.8173417580695845
41,-1.4648398071132152,1.974507708453073
42,-1.0573574502993706,1.9663226643653533
