Row,CL,DCP,F1,Harmfulness,N1,N2,TD_P,TD_U,Usefulness,kDN
z_1,-0.04064447039694642,-0.16102714727020612,0.1678294634040716,0.21392999745515545,0.28560135419178967,0.20679290247411886,-0.21750416448775456,-0.13715904035344134,-0.04700945397990868,0.10983802936364954
z_2,0.5753924567749065,0.5205941387530425,0.021778782434867444,0.2069200749436715,0.05982459660234818,0.23023119722231852,0.23124877700105864,0.09804793566518495,0.3035026699058954,0.4096823714629502
