Row,z_1,z_2
0,1.2432338802067386,0.8455573069490634
1,1.196222607163561,0.8531409482166692
2,1.1937362445930897,0.8595907151629889
3,1.1864312773182455,0.8970685230621341
4,1.2129114422359752,0.9373264733228341
5,1.281470601975336,0.9303370530372773
6,1.378035314272462,0.834444106291213
7,1.355928137745884,0.8350497180761491
8,1.3052353498700155,0.8386578536160052
9,1.287574899003314,0.8395882655563892
10,,
11,0.6506157116492528,0.98777623060243
12,0.6499442555857473,0.9839916706375768
13,0.660866977960328,0.9884227816939494
14,,
15,0.8783852721877695,0.8335093080125443
16,0.8181142826475623,0.8980271102751947
17,0.8411811903960518,0.9592604130887549
18,0.9852607001160177,0.8865942231288656
19,,
20,1.1589411027138865,0.8614666094628038
21,1.1376529637637416,0.8338256956607897
22,1.1293304947168017,0.8584113447431024
23,1.1271646338364425,0.8651949973849967
24,,
25,1.170955858499266,0.9532187319945422
26,1.1589411027138865,0.8614666094628038
27,1.1135681846953631,0.9097867618081213
28,1.0896073726600344,0.9749728516688793
