Row,z_1,z_2
0,-2.11340448671748,1.203026969866758
1,-1.8824392119935587,0.6658698079326452
2,-1.4692572282071679,0.6714450143664213
3,,
4,-0.06853487966527623,1.6024814242666945
5,-0.2728695043801178,1.6921450575211598
6,0.005060163966120427,1.5205655745157
7,,
8,-2.315537434098062,2.149624542757659
9,-2.3112535124937135,2.12322787148068
10,-2.3073489956190896,2.176914698337168
