Row,z_1,z_2
0,0.576413413554999,1.1983492388954051
1,0.6785749794969411,1.1712447524836869
2,0.5769132133391288,0.8932336381487256
3,,
4,0.2874298723181045,1.290494732696064
5,0.560913735342674,1.1994094236918982
6,0.40816587869481263,0.8275237244613155
7,,
8,-0.6022178360231377,0.5664091380344375
9,-0.2728695043801178,1.6921450575211598
10,-0.24685700891951362,1.6847599491379706
11,,
12,-2.474655423709348,1.3313520599675888
13,-2.4944763337266593,1.3755020610147168
14,-2.48417312183617,1.409840263125181
15,-2.4651058353842026,1.4742484905887798
16,,
17,-2.239790911254508,2.3226562337209713
18,-2.1845982223060565,2.371239910580308
19,-2.086297107570118,2.396462894857962
20,,
21,-1.3244710919321863,2.372251601979927
22,-1.8938482424801868,2.4806068770113043
23,-1.513291705842769,2.819946938042747
24,-1.4125306971365341,2.8067392756676885
25,-1.3573640110050564,2.752265308448493
26,-1.3120446379844322,2.698033593046949
