Row,Best_Algorithm
1,1
2,1
3,5
4,2
5,7
6,2
7,1
8,4
9,1
10,1
11,5
12,1
13,6
14,6
15,7
16,3
17,7
18,3
19,2
20,5
21,5
22,6
23,5
24,3
25,7
26,3
27,3
28,3
29,4
30,3
31,6
32,5
33,5
34,6
35,3
36,3
37,4
38,3
39,3
40,3
41,6
42,5
43,6
44,7
45,6
46,3
47,5
48,6
49,4
50,6
51,2
52,5
53,5
54,7
55,5
56,2
57,3
58,5
59,7
60,7
61,4
62,4
63,3
64,6
65,6
66,4
67,4
68,6
69,7
70,6
71,5
72,1
73,7
74,5
75,4
76,6
77,3
78,6
79,4
80,1
81,3
82,3
83,2
84,6
85,3
86,2
87,6
88,3
89,2
90,6
91,3
92,3
93,6
94,5
95,5
96,7
97,3
98,5
99,6
100,3
101,3
102,5
103,3
104,3
105,7
106,3
107,3
108,3
109,6
110,3
111,4
112,7
113,3
114,6
115,4
116,3
117,7
118,4
119,4
120,2
121,3
122,4
123,5
124,4
125,6
126,3
127,7
128,4
129,5
130,7
131,2
132,2
133,5
134,7
135,4
136,7
137,7
138,3
139,3
140,3
141,3
142,4
143,5
144,3
145,1
146,7
147,7
148,3
149,3
150,7
151,6
152,5
153,3
154,3
155,6
156,2
157,3
158,6
159,3
160,3
161,3
162,2
163,6
164,3
165,3
166,3
167,5
168,4
169,2
170,3
171,2
172,7
173,6
174,7
175,7
176,7
177,4
178,2
179,5
180,3
181,3
182,3
183,7
184,6
185,4
186,3
187,3
188,6
189,3
190,3
191,7
192,4
193,6
194,4
195,6
196,5
197,6
198,4
199,1
200,5
201,2
202,6
203,2
204,2
205,7
206,6
207,5
208,6
209,7
210,4
211,3
212,6
213,5
214,4
215,3
216,7
217,5
218,6
219,4
220,7
221,1
222,3
223,3
224,3
225,3
226,7
227,4
228,3
229,4
230,6
231,7
232,2
233,6
234,6
235,7
236,5
237,7
238,5
239,3
240,6
241,3
242,7
243,3
244,3
245,5
246,5
247,7
248,7
249,3
250,4
251,5
252,7
253,5
254,6
255,2
256,7
257,5
258,6
259,3
260,6
261,3
262,6
263,4
264,4
265,5
266,3
267,6
268,3
269,3
270,3
271,5
272,6
273,5
274,6
275,2
276,3
277,1
278,4
279,3
280,4
281,2
282,3
283,4
284,3
285,7
286,3
287,3
288,3
289,3
290,6
291,2
292,3
293,5
294,6
295,3
296,3
297,2
298,2
299,6
300,3
301,7
302,6
303,4
304,2
305,5
306,3
307,7
308,4
309,2
310,3
311,6
312,3
313,3
314,6
315,4
316,5
317,3
318,6
319,7
320,4
321,4
322,3
323,2
324,5
325,6
326,2
327,7
328,3
329,3
330,4
331,3
332,3
333,6
334,3
335,3
336,1
337,7
338,6
339,6
340,3
341,2
342,5
343,6
344,6
345,1
346,3
347,5
348,7
349,6
350,2
351,5
352,7
353,6
354,5
355,3
356,3
357,6
358,3
359,3
360,6
361,1
362,3
363,6
364,6
365,7
366,2
367,6
368,6
369,6
370,3
371,7
372,3
373,5
374,4
375,6
376,6
377,3
378,7
379,5
380,4
381,3
382,2
383,3
384,2
385,3
386,6
387,6
388,3
389,5
390,2
391,5
392,5
393,7
394,7
395,5
396,4
397,5
398,7
399,2
400,2
401,5
402,6
403,6
404,1
405,7
406,3
407,1
408,7
409,3
410,6
411,7
412,5
413,3
414,4
415,4
416,6
417,7
418,2
419,3
420,5
421,7
422,5
423,2
424,4
425,5
426,6
427,2
428,4
429,2
430,1
431,7
432,2
433,1
434,6
435,6
436,5
437,7
438,3
439,4
440,3
441,5
442,7
443,3
444,1
445,4
446,3
447,3
448,7
449,2
450,6
451,4
452,3
453,7
454,3
455,5
456,5
457,3
458,2
459,3
460,3
461,1
462,7
463,5
464,6
465,3
466,3
467,7
468,2
469,4
470,3
471,5
472,3
473,6
474,2
475,2
476,5
477,6
478,3
479,6
480,2
481,4
482,5
483,4
484,2
485,2
486,3
487,5
488,7
489,7
490,3
491,6
492,3
493,6
494,1
495,3
496,3
497,3
498,6
499,3
500,6
501,2
502,2
503,4
504,5
505,5
506,2
507,5
508,2
509,4
510,3
511,6
512,4
513,3
514,1
515,4
516,5
517,4
518,4
519,7
520,4
521,2
522,4
523,3
524,3
525,2
526,3
527,7
528,2
529,4
530,5
531,4
532,4
533,3
534,4
535,3
536,5
537,5
538,6
539,5
540,3
541,7
542,7
543,4
544,2
545,3
546,3
547,3
548,3
549,4
550,3
551,3
552,2
553,2
554,2
555,3
556,3
557,3
558,5
559,6
560,5
561,7
562,3
563,7
564,5
565,7
566,6
567,3
568,3
569,6
570,6
571,5
572,3
573,5
574,3
575,3
576,4
577,3
578,3
579,2
580,7
581,1
582,6
583,3
584,6
585,1
586,7
587,3
588,6
589,1
590,3
591,6
592,6
593,6
594,3
595,7
596,3
597,3
598,4
599,4
600,3
601,4
602,3
603,6
604,3
605,3
606,6
607,3
608,3
609,2
610,3
611,6
612,5
613,1
614,3
615,3
616,3
617,7
618,3
619,5
620,2
621,4
622,3
623,6
624,4
625,1
626,6
627,3
628,4
629,4
630,3
631,6
632,3
633,5
634,4
635,3
636,6
637,4
638,3
639,4
640,3
641,3
642,3
643,2
644,1
645,6
646,7
647,6
648,3
649,2
650,5
651,2
652,4
653,7
654,7
655,3
656,5
657,7
658,1
659,1
660,7
661,6
662,6
663,5
664,5
665,3
666,3
667,4
668,7
669,5
670,3
671,7
672,4
673,3
674,3
675,4
676,6
677,1
678,3
679,6
680,3
681,5
682,2
683,6
684,3
685,5
686,7
687,5
688,4
689,3
690,3
691,3
692,3
693,4
694,7
695,6
696,3
697,3
698,2
699,7
700,4
701,3
702,5
703,7
704,4
705,7
706,3
707,2
708,2
709,7
710,4
711,6
712,1
713,4
714,6
715,7
716,6
717,7
718,3
719,5
720,3
721,6
722,4
723,4
724,1
725,4
726,3
727,7
728,5
729,3
730,3
731,2
732,7
733,4
734,3
735,5
736,7
737,2
738,6
739,5
740,2
741,6
742,2
743,2
744,5
745,5
746,4
747,3
748,3
749,3
750,2
751,3
752,1
753,7
754,4
755,7
756,2
757,4
758,6
759,6
760,3
761,4
762,3
763,6
764,5
765,4
766,5
767,3
768,7
769,7
770,3
771,6
772,1
773,1
774,5
775,3
776,3
777,4
778,2
779,7
780,5
781,7
782,3
783,6
784,2
785,3
786,7
787,6
788,3
789,3
790,1
791,2
792,3
793,7
794,7
795,1
796,1
797,3
798,3
799,3
800,6
801,5
802,5
803,4
804,2
805,7
806,4
807,3
808,3
809,3
810,3
811,4
812,7
813,6
814,3
815,7
816,2
817,3
818,3
819,3
820,4
821,2
822,7
823,6
824,5
825,4
826,2
827,5
828,7
829,3
830,1
831,3
832,3
833,7
834,7
835,7
836,7
837,3
838,3
839,6
840,3
841,2
842,3
843,3
844,3
845,4
846,1
847,6
848,5
849,3
850,7
851,2
852,6
853,2
854,3
855,4
856,5
857,2
858,3
859,7
860,2
861,6
862,3
863,7
864,5
865,3
866,3
867,5
868,5
869,2
870,7
871,5
872,3
873,3
874,6
875,4
876,4
877,3
878,3
879,3
880,3
881,3
882,6
883,3
884,3
885,7
886,3
887,4
888,3
889,3
890,6
891,4
892,3
893,5
894,2
895,4
896,3
897,7
898,2
899,2
900,5
901,4
902,2
903,3
904,4
905,3
906,3
907,3
908,6
909,5
910,7
911,1
912,6
913,3
914,3
915,3
916,3
917,6
918,5
919,3
920,7
921,4
922,4
923,7
924,7
925,3
926,3
927,4
928,3
929,1
930,6
931,7
932,7
933,6
934,6
935,6
936,3
937,6
938,3
939,2
940,6
941,2
942,4
943,5
944,3
945,3
946,3
947,1
948,7
949,5
950,7
951,7
952,3
953,7
954,3
955,3
956,2
957,2
958,3
959,6
960,5
961,2
962,7
963,4
964,4
965,5
966,3
967,6
968,4
969,4
970,6
971,5
972,6
973,6
974,3
975,3
976,3
977,2
978,3
979,4
980,4
981,7
982,6
983,5
984,3
985,7
986,6
987,7
988,4
989,6
990,6
991,3
992,5
993,4
994,7
995,1
996,7
997,2
998,3
999,2
1000,5
1001,3
1002,3
1003,2
1004,1
1005,3
1006,2
1007,5
1008,6
1009,5
1010,5
1011,5
1012,2
1013,2
1014,3
1015,3
1016,4
1017,3
1018,3
1019,3
1020,6
1021,3
1022,5
1023,7
1024,3
1025,3
1026,5
1027,2
1028,6
1029,3
1030,5
1031,3
1032,3
1033,5
1034,3
1035,6
1036,6
1037,6
1038,2
1039,6
1040,3
1041,1
1042,4
1043,3
1044,1
1045,3
1046,3
1047,3
1048,3
1049,3
1050,3
1051,7
1052,5
1053,1
1054,6
1055,3
1056,6
1057,6
1058,2
1059,3
1060,3
1061,6
1062,3
1063,7
1064,3
1065,7
1066,5
1067,6
1068,6
1069,3
1070,7
1071,1
1072,7
1073,5
1074,6
1075,3
1076,3
1077,3
1078,6
1079,3
1080,6
1081,3
1082,3
1083,2
1084,3
1085,5
1086,2
1087,1
1088,2
1089,4
1090,3
1091,3
1092,5
1093,7
1094,5
1095,6
1096,6
1097,5
1098,4
1099,6
1100,2
1101,6
1102,3
1103,3
1104,4
1105,3
1106,3
1107,3
1108,4
1109,5
1110,3
1111,7
1112,3
1113,3
1114,3
1115,5
1116,5
1117,3
1118,7
1119,3
1120,3
1121,7
1122,6
1123,5
1124,6
1125,6
1126,3
1127,1
1128,2
1129,2
1130,6
1131,1
1132,5
1133,5
1134,2
1135,3
1136,2
1137,4
1138,5
1139,6
1140,7
1141,3
1142,2
1143,5
1144,5
1145,3
1146,3
1147,6
1148,2
1149,7
1150,7
1151,6
1152,3
1153,5
1154,6
1155,3
1156,7
1157,5
1158,2
1159,3
1160,5
1161,2
1162,1
1163,3
1164,3
1165,3
1166,3
1167,3
1168,2
1169,7
1170,1
1171,7
1172,5
1173,5
1174,5
1175,5
1176,6
1177,5
1178,6
1179,3
1180,5
1181,3
1182,7
1183,6
1184,4
1185,6
1186,3
1187,6
1188,3
1189,5
1190,5
1191,3
1192,2
1193,7
1194,4
1195,7
1196,3
1197,4
1198,3
1199,3
1200,1
1201,3
1202,3
1203,6
1204,4
1205,5
1206,4
1207,5
1208,5
1209,7
1210,6
1211,7
1212,3
1213,4
1214,3
1215,6
1216,3
1217,5
1218,7
1219,3
1220,2
1221,4
1222,6
1223,3
1224,6
1225,6
1226,3
1227,4
1228,7
1229,2
1230,5
1231,3
1232,7
1233,7
1234,5
1235,1
1236,5
1237,6
1238,3
1239,7
1240,2
1241,3
1242,3
1243,3
1244,7
1245,6
1246,3
1247,7
1248,3
1249,6
1250,3
1251,6
1252,5
1253,5
1254,4
1255,3
1256,7
1257,5
1258,6
1259,3
1260,7
1261,5
1262,3
1263,4
1264,3
1265,3
1266,3
1267,6
1268,3
1269,5
1270,6
1271,6
1272,6
1273,6
1274,6
1275,3
1276,3
1277,6
1278,3
1279,7
1280,6
1281,2
1282,6
1283,1
1284,1
1285,6
1286,5
1287,3
1288,7
1289,6
1290,3
1291,1
1292,3
1293,3
1294,6
1295,3
1296,6
1297,4
1298,6
1299,6
1300,6
1301,3
1302,7
1303,7
1304,3
1305,5
1306,4
1307,5
1308,4
1309,3
1310,3
1311,3
1312,7
1313,6
1314,4
1315,3
1316,6
1317,6
1318,3
1319,6
1320,5
1321,3
1322,6
1323,5
1324,6
1325,2
1326,6
1327,5
1328,6
1329,7
1330,4
1331,1
1332,5
1333,4
1334,3
1335,2
1336,5
1337,3
1338,7
1339,7
1340,5
1341,6
1342,6
1343,6
1344,5
1345,6
1346,3
1347,4
1348,4
1349,3
1350,3
1351,5
1352,5
1353,4
1354,3
1355,1
1356,6
1357,6
1358,7
1359,7
1360,3
1361,3
1362,3
1363,6
1364,3
1365,3
1366,3
1367,3
1368,4
1369,6
1370,2
1371,1
1372,6
1373,4
1374,6
1375,3
1376,5
1377,3
1378,3
1379,6
1380,6
1381,6
1382,3
1383,6
1384,3
1385,6
1386,3
1387,3
1388,7
1389,4
1390,5
1391,7
1392,6
1393,3
1394,1
1395,3
1396,5
1397,6
1398,3
1399,6
1400,2
1401,6
1402,7
1403,3
1404,3
1405,3
1406,3
1407,3
1408,3
1409,5
1410,6
1411,3
1412,3
1413,2
1414,7
1415,2
1416,6
1417,7
1418,3
1419,6
1420,6
1421,3
1422,3
1423,3
1424,6
1425,7
1426,3
1427,7
1428,4
1429,6
1430,3
1431,6
1432,6
1433,3
1434,7
1435,4
1436,3
1437,4
1438,6
1439,4
1440,3
1441,7
1442,7
1443,7
1444,3
1445,6
1446,7
1447,7
1448,2
1449,6
1450,5
1451,3
1452,3
1453,3
1454,5
1455,6
1456,3
1457,3
1458,4
1459,6
1460,1
1461,5
1462,3
1463,3
1464,6
1465,6
1466,6
1467,5
1468,3
1469,5
1470,6
1471,2
1472,6
1473,2
1474,3
1475,3
1476,4
1477,5
1478,3
1479,5
1480,4
1481,5
1482,5
1483,2
1484,3
1485,6
1486,3
1487,3
1488,6
1489,4
1490,5
1491,6
1492,3
1493,3
1494,3
1495,3
1496,6
1497,5
1498,3
1499,5
1500,6
1501,3
1502,3
1503,6
1504,7
1505,3
1506,5
1507,4
1508,4
1509,6
1510,2
1511,6
1512,7
1513,7
1514,4
1515,3
1516,7
1517,6
1518,3
1519,3
1520,4
1521,3
1522,3
1523,7
1524,5
1525,4
1526,3
1527,6
1528,6
1529,3
1530,6
1531,3
1532,6
1533,6
1534,6
1535,4
1536,4
1537,5
1538,3
1539,6
1540,3
1541,3
1542,4
1543,3
1544,7
1545,3
1546,2
1547,6
1548,3
1549,4
1550,3
1551,7
1552,2
1553,5
1554,5
1555,6
1556,3
1557,7
1558,7
1559,3
1560,6
1561,6
1562,3
1563,2
1564,4
1565,1
1566,4
1567,6
1568,3
1569,5
1570,5
1571,3
1572,3
1573,7
1574,7
1575,3
1576,6
1577,6
1578,2
1579,7
1580,6
1581,7
1582,3
1583,3
1584,7
1585,4
1586,4
1587,1
1588,6
1589,7
1590,2
1591,2
1592,5
1593,3
1594,3
1595,3
1596,6
1597,4
1598,7
1599,7
1600,3
1601,1
1602,7
1603,3
1604,3
1605,6
1606,6
1607,5
1608,1
1609,2
1610,6
1611,3
1612,5
1613,3
1614,3
1615,5
1616,5
1617,7
1618,1
1619,6
1620,3
1621,7
1622,7
1623,4
1624,4
1625,2
1626,3
1627,3
1628,3
1629,2
1630,3
1631,1
1632,4
1633,3
1634,2
1635,3
1636,5
1637,7
1638,7
1639,6
1640,1
1641,4
1642,4
1643,3
1644,2
1645,2
1646,6
1647,6
1648,3
1649,3
1650,4
1651,1
1652,6
1653,6
1654,6
1655,4
1656,3
1657,4
1658,4
1659,7
1660,6
1661,2
1662,6
1663,3
1664,7
1665,7
1666,6
1667,1
1668,3
1669,2
1670,3
1671,3
1672,6
1673,3
1674,5
1675,5
1676,2
1677,7
1678,3
1679,5
1680,3
1681,1
1682,3
1683,3
1684,3
1685,6
1686,5
1687,3
1688,1
1689,6
1690,3
1691,7
1692,6
1693,7
1694,5
1695,2
1696,7
1697,6
1698,3
1699,7
1700,3
1701,3
1702,7
1703,3
1704,3
1705,3
1706,3
1707,5
1708,7
1709,1
1710,7
1711,7
1712,6
1713,5
1714,3
1715,7
1716,6
1717,6
1718,1
1719,6
1720,5
1721,1
1722,5
1723,3
1724,7
1725,6
1726,5
1727,6
1728,4
1729,3
1730,3
1731,2
1732,6
1733,5
1734,7
1735,6
1736,3
1737,3
1738,6
1739,6
1740,6
1741,6
1742,3
1743,7
1744,6
1745,3
1746,3
1747,6
1748,6
1749,3
1750,6
1751,7
1752,3
1753,3
1754,3
1755,6
1756,3
1757,6
1758,3
1759,3
1760,6
1761,1
1762,2
1763,7
1764,3
1765,3
1766,3
1767,7
1768,3
1769,3
1770,2
1771,3
1772,6
1773,6
1774,5
1775,7
1776,2
1777,7
1778,3
1779,1
1780,6
1781,4
1782,1
1783,3
1784,3
1785,3
1786,3
1787,3
1788,5
1789,6
1790,3
1791,3
1792,3
1793,6
1794,6
1795,3
1796,4
1797,4
1798,4
1799,4
1800,7
1801,3
1802,4
1803,6
1804,7
1805,3
1806,2
1807,7
1808,6
1809,6
1810,7
1811,3
1812,3
1813,4
1814,7
1815,3
1816,6
1817,4
1818,2
1819,5
1820,3
1821,7
1822,6
1823,3
1824,5
1825,6
1826,6
1827,3
1828,6
1829,6
1830,6
1831,5
1832,7
1833,2
1834,2
1835,3
1836,6
1837,6
1838,3
1839,3
1840,3
1841,6
1842,1
1843,5
1844,7
1845,7
1846,5
1847,6
1848,5
1849,3
1850,3
1851,5
1852,3
1853,7
1854,3
1855,4
1856,7
1857,6
1858,3
1859,2
1860,3
1861,2
1862,5
1863,7
1864,1
1865,5
1866,3
1867,6
1868,6
1869,5
1870,5
1871,5
1872,3
1873,3
1874,3
1875,3
1876,6
1877,7
1878,3
1879,6
1880,3
1881,7
1882,6
1883,6
1884,5
1885,7
1886,4
1887,1
1888,1
1889,7
1890,6
1891,6
1892,6
1893,3
1894,3
1895,3
1896,4
1897,3
1898,3
1899,3
1900,3
1901,5
1902,3
1903,4
1904,6
1905,7
1906,6
1907,3
1908,3
1909,5
1910,2
1911,3
1912,4
1913,1
1914,6
1915,5
1916,5
1917,6
1918,3
1919,5
1920,5
1921,4
1922,3
1923,3
1924,3
1925,7
1926,5
1927,7
1928,3
1929,2
1930,4
1931,6
1932,4
1933,5
1934,3
1935,7
1936,5
1937,6
1938,3
1939,5
1940,7
1941,5
1942,6
1943,3
1944,5
1945,3
1946,6
1947,6
1948,7
1949,5
1950,7
1951,2
1952,4
1953,5
1954,4
1955,3
1956,3
1957,6
1958,3
1959,3
1960,6
1961,3
1962,6
1963,5
1964,6
1965,5
1966,3
1967,3
1968,3
1969,5
1970,3
1971,4
1972,5
1973,7
1974,7
1975,3
1976,4
1977,6
1978,7
1979,6
1980,2
1981,7
1982,7
1983,3
1984,3
1985,3
1986,7
1987,6
1988,7
1989,7
1990,2
1991,2
1992,3
1993,7
1994,4
1995,3
1996,5
1997,5
1998,7
1999,5
2000,5
2001,3
2002,4
2003,6
2004,3
2005,6
2006,7
2007,3
2008,3
2009,3
2010,4
2011,3
2012,6
2013,3
2014,3
2015,3
2016,6
2017,2
2018,3
2019,5
2020,3
2021,7
2022,3
2023,5
2024,3
2025,5
2026,6
2027,3
2028,5
2029,7
2030,7
2031,5
2032,3
2033,6
2034,5
2035,5
2036,5
2037,5
2038,1
2039,6
2040,7
2041,7
2042,5
2043,7
2044,2
2045,5
2046,3
2047,5
2048,4
2049,5
2050,6
2051,3
2052,6
2053,3
2054,3
2055,3
2056,3
2057,3
2058,7
2059,1
2060,2
2061,6
2062,5
2063,3
2064,3
2065,3
2066,5
2067,6
2068,3
2069,3
2070,2
2071,7
2072,5
2073,7
2074,5
2075,3
2076,3
2077,4
2078,4
2079,3
2080,2
2081,3
2082,5
2083,6
2084,7
2085,7
2086,3
2087,3
2088,6
2089,7
2090,7
2091,6
2092,5
2093,5
2094,6
2095,3
2096,5
2097,7
2098,6
2099,6
2100,3
2101,3
2102,6
2103,6
2104,3
2105,7
2106,5
2107,3
2108,5
2109,7
2110,5
2111,3
2112,2
2113,3
2114,5
2115,7
2116,3
2117,3
2118,6
2119,5
2120,4
2121,4
2122,1
2123,1
2124,5
2125,5
2126,4
2127,6
2128,3
2129,3
2130,3
2131,6
2132,3
2133,3
2134,7
2135,3
2136,1
2137,3
2138,6
2139,3
2140,3
2141,7
2142,5
2143,3
2144,7
2145,1
2146,3
2147,6
2148,3
2149,5
2150,5
2151,5
2152,3
2153,3
2154,6
2155,3
2156,3
2157,6
2158,3
2159,1
2160,2
2161,2
2162,7
2163,2
2164,4
2165,2
2166,6
2167,4
2168,6
2169,4
2170,3
2171,7
2172,3
2173,3
2174,6
2175,3
2176,7
2177,3
2178,1
2179,6
2180,7
2181,7
2182,7
2183,6
2184,3
2185,3
2186,4
2187,2
2188,2
2189,3
2190,6
2191,6
2192,6
2193,6
2194,3
2195,7
2196,3
2197,6
2198,3
2199,6
2200,3
2201,3
2202,4
2203,7
2204,2
2205,5
2206,3
2207,6
2208,5
2209,7
2210,3
2211,6
2212,3
2213,3
2214,5
2215,3
2216,4
2217,3
2218,4
2219,7
2220,7
2221,6
2222,6
2223,5
2224,4
2225,2
2226,3
2227,5
2228,6
2229,5
2230,7
2231,7
2232,7
2233,3
2234,4
2235,3
2236,1
2237,7
2238,4
2239,7
2240,1
2241,7
2242,6
2243,5
2244,2
2245,1
2246,3
2247,7
2248,6
2249,2
2250,1
2251,5
2252,7
2253,6
2254,3
2255,6
2256,3
2257,3
2258,4
2259,2
2260,2
2261,3
2262,3
2263,3
2264,4
2265,7
2266,3
2267,5
2268,6
2269,2
2270,3
2271,3
2272,7
2273,6
2274,4
2275,7
2276,1
2277,3
2278,5
2279,2
2280,7
2281,5
2282,7
2283,7
2284,6
2285,6
2286,5
2287,3
2288,6
2289,7
2290,3
2291,5
2292,5
2293,3
2294,3
2295,2
2296,6
2297,4
2298,2
2299,6
2300,5
2301,6
2302,6
2303,3
2304,3
2305,5
2306,5
2307,4
2308,5
2309,3
2310,2
2311,2
2312,7
2313,7
2314,3
2315,5
2316,3
2317,6
2318,3
2319,3
2320,3
2321,6
2322,6
2323,4
2324,3
2325,3
2326,3
2327,7
2328,1
2329,4
2330,5
2331,5
2332,3
2333,6
2334,3
2335,3
2336,6
2337,3
2338,3
2339,3
2340,4
2341,4
2342,3
2343,2
2344,3
2345,6
2346,5
2347,7
2348,2
2349,5
2350,5
2351,3
2352,5
2353,3
2354,5
2355,7
2356,1
2357,2
2358,4
2359,2
2360,3
2361,5
2362,7
2363,5
2364,7
2365,5
2366,6
2367,3
2368,4
2369,2
2370,4
2371,5
2372,6
2373,3
2374,3
2375,4
2376,3
2377,3
2378,5
2379,3
2380,5
2381,5
2382,3
2383,6
2384,5
2385,7
2386,6
2387,3
2388,3
2389,3
2390,3
2391,4
2392,2
2393,3
2394,6
2395,3
2396,1
2397,2
2398,6
2399,5
2400,5
2401,7
2402,3
2403,6
2404,6
2405,7
2406,5
2407,5
2408,3
2409,5
2410,6
2411,7
2412,5
2413,3
2414,7
2415,7
2416,3
2417,1
2418,7
2419,2
2420,3
2421,7
2422,6
2423,4
2424,2
2425,7
2426,3
2427,2
2428,7
2429,6
2430,7
2431,3
2432,2
2433,4
2434,2
2435,7
2436,4
2437,6
2438,4
2439,4
2440,3
2441,4
2442,3
2443,3
2444,5
2445,7
2446,7
2447,6
2448,7
2449,7
2450,3
2451,6
2452,4
2453,3
2454,5
2455,3
2456,2
2457,3
2458,5
2459,4
2460,5
2461,7
2462,1
2463,1
2464,4
2465,4
2466,1
2467,1
2468,1
2469,2
2470,4
2471,1
2472,3
2473,7
2474,5
2475,7
2476,3
2477,7
2478,5
2479,3
2480,3
2481,5
2482,6
2483,3
2484,6
2485,3
2486,5
2487,6
2488,5
2489,3
2490,7
2491,3
2492,3
2493,6
2494,3
2495,5
2496,3
2497,3
2498,6
2499,3
2500,6
2501,3
2502,3
2503,6
2504,4
2505,2
2506,7
2507,2
2508,2
2509,5
2510,5
2511,3
2512,4
2513,6
2514,4
2515,3
2516,4
2517,5
2518,6
2519,1
2520,1
2521,5
2522,1
2523,2
2524,7
2525,3
2526,7
2527,6
2528,7
2529,3
2530,6
2531,5
2532,4
2533,6
2534,1
2535,4
2536,1
2537,2
2538,2
2539,4
2540,6
2541,3
2542,4
2543,3
2544,3
2545,6
2546,6
2547,2
2548,3
2549,3
2550,3
2551,5
2552,3
2553,4
2554,4
2555,7
2556,5
2557,5
2558,5
2559,5
2560,5
2561,2
2562,3
2563,4
2564,6
2565,5
2566,5
2567,3
2568,3
2569,7
2570,3
2571,3
2572,6
2573,3
2574,7
2575,1
2576,3
2577,6
2578,7
2579,6
2580,6
2581,5
2582,5
2583,2
2584,7
2585,5
2586,5
2587,6
2588,4
2589,4
2590,3
2591,3
2592,2
2593,4
2594,7
2595,7
2596,1
2597,1
2598,1
2599,2
2600,2
2601,2
2602,1
2603,1
2604,1
2605,1
2606,7
2607,1
2608,4
2609,2
2610,7
2611,2
2612,3
2613,7
2614,5
2615,2
2616,4
2617,1
2618,1
2619,2
2620,2
2621,5
2622,1
2623,1
2624,2
2625,3
2626,4
2627,7
2628,2
2629,1
2630,7
2631,3
2632,1
2633,1
2634,2
2635,7
2636,7
2637,1
2638,2
2639,5
2640,7
2641,7
2642,4
2643,2
2644,2
2645,2
2646,2
2647,2
2648,2
2649,7
2650,1
2651,1
2652,1
2653,1
2654,1
2655,2
2656,1
2657,7
2658,2
2659,1
2660,2
2661,2
2662,1
2663,5
2664,3
2665,2
2666,1
2667,1
2668,1
2669,1
2670,7
2671,2
2672,1
2673,1
2674,2
2675,5
2676,7
2677,7
2678,2
2679,1
2680,2
2681,5
2682,7
2683,5
2684,2
2685,4
2686,2
2687,2
2688,7
2689,1
2690,2
2691,7
2692,4
2693,1
2694,1
2695,7
2696,5
2697,5
2698,1
2699,5
2700,5
2701,7
2702,1
2703,1
2704,1
2705,1
2706,2
2707,1
2708,7
2709,5
2710,1
2711,7
2712,1
2713,2
2714,1
2715,1
2716,2
2717,1
2718,7
2719,1
2720,2
2721,7
2722,7
2723,7
2724,7
2725,2
2726,1
2727,5
2728,7
2729,3
2730,2
2731,5
2732,5
2733,6
2734,1
2735,2
2736,1
2737,2
2738,2
2739,1
2740,2
2741,1
2742,2
2743,7
2744,1
2745,3
2746,1
2747,1
2748,7
2749,1
2750,1
2751,2
2752,2
2753,4
2754,7
2755,5
2756,2
2757,1
2758,2
2759,1
2760,1
2761,7
2762,5
2763,1
2764,4
2765,2
2766,1
2767,7
2768,2
2769,2
2770,5
2771,1
2772,1
2773,1
2774,1
2775,1
2776,2
2777,2
2778,5
2779,7
2780,7
2781,5
2782,1
2783,1
2784,2
2785,1
2786,7
2787,2
2788,2
2789,7
2790,2
2791,1
2792,1
2793,1
2794,2
2795,2
2796,2
2797,3
2798,2
2799,2
2800,1
2801,1
2802,7
2803,1
2804,1
2805,3
2806,2
2807,2
2808,1
2809,2
2810,2
2811,1
2812,4
2813,1
2814,7
2815,2
2816,2
2817,5
2818,5
2819,5
2820,7
2821,1
2822,1
2823,1
2824,1
2825,2
2826,5
2827,1
2828,2
2829,1
2830,1
2831,1
2832,4
2833,3
2834,1
2835,1
2836,1
2837,5
2838,3
2839,7
2840,1
2841,5
2842,1
2843,2
2844,2
2845,2
2846,7
2847,1
2848,1
2849,1
2850,1
2851,1
2852,2
2853,2
2854,3
2855,3
2856,7
2857,5
2858,7
2859,7
2860,1
2861,7
2862,1
2863,2
2864,1
2865,3
2866,2
2867,4
2868,1
2869,1
2870,1
2871,1
2872,1
2873,1
2874,1
2875,1
2876,7
2877,1
2878,4
2879,5
2880,2
2881,2
2882,1
2883,2
2884,2
2885,2
2886,2
2887,1
2888,3
2889,7
2890,7
2891,7
2892,7
2893,7
2894,1
2895,1
2896,2
2897,1
2898,5
2899,2
2900,1
2901,7
2902,7
2903,3
2904,7
2905,5
2906,2
2907,5
2908,2
2909,2
2910,4
2911,2
2912,2
2913,7
2914,7
2915,4
2916,2
2917,1
2918,2
2919,5
2920,7
2921,2
2922,7
2923,2
2924,2
2925,2
2926,7
2927,1
2928,3
2929,4
2930,1
2931,1
2932,1
2933,2
2934,2
2935,6
2936,1
2937,2
2938,4
2939,2
2940,2
2941,2
2942,1
2943,3
2944,4
2945,5
2946,2
2947,1
2948,1
2949,1
2950,3
2951,1
2952,3
2953,2
2954,7
2955,1
2956,2
2957,7
2958,7
2959,3
2960,2
2961,7
2962,7
2963,1
2964,4
2965,5
2966,1
2967,4
2968,7
2969,1
2970,2
2971,5
2972,1
2973,2
2974,2
2975,7
2976,5
2977,7
2978,1
2979,5
2980,6
2981,5
2982,3
2983,2
2984,5
2985,2
2986,7
2987,1
2988,1
2989,2
2990,1
2991,7
2992,7
2993,7
2994,1
2995,1
2996,7
2997,2
2998,1
2999,7
3000,1
3001,1
3002,5
3003,2
3004,2
3005,5
3006,1
3007,1
3008,7
3009,4
3010,1
3011,1
3012,1
3013,2
3014,5
3015,1
3016,1
3017,5
3018,7
3019,2
3020,2
3021,2
3022,2
3023,2
3024,1
3025,2
3026,2
3027,1
3028,1
3029,5
3030,1
3031,1
3032,2
3033,2
3034,7
3035,3
3036,2
3037,7
3038,3
3039,7
3040,1
3041,2
3042,2
3043,1
3044,1
3045,2
3046,1
3047,2
3048,1
3049,7
3050,4
3051,2
3052,1
3053,7
3054,7
3055,2
3056,2
3057,7
3058,2
3059,2
3060,2
3061,1
3062,4
3063,3
3064,7
3065,1
3066,2
3067,7
3068,1
3069,2
3070,1
3071,1
3072,2
3073,5
3074,1
3075,2
3076,1
3077,1
3078,7
3079,3
3080,1
3081,2
3082,2
3083,2
3084,1
3085,7
3086,1
3087,7
3088,1
3089,5
3090,4
3091,2
3092,6
3093,1
3094,3
3095,2
3096,1
3097,2
3098,7
3099,2
3100,7
3101,2
3102,2
3103,7
3104,3
3105,5
3106,7
3107,5
3108,7
3109,1
3110,1
3111,7
3112,7
3113,1
3114,2
3115,7
3116,5
3117,1
3118,1
3119,5
3120,1
3121,7
3122,7
3123,4
3124,3
3125,3
3126,1
3127,1
3128,1
3129,1
3130,2
3131,2
3132,2
3133,5
3134,5
3135,2
3136,1
3137,7
3138,3
3139,7
3140,2
3141,7
3142,2
3143,1
3144,2
3145,1
3146,1
3147,6
3148,2
3149,7
3150,2
3151,3
3152,2
3153,1
3154,1
3155,1
3156,2
3157,1
3158,2
3159,1
3160,1
3161,2
3162,7
3163,7
3164,7
3165,7
3166,1
3167,7
3168,1
3169,1
3170,5
3171,1
3172,2
3173,2
3174,2
3175,3
3176,2
3177,5
3178,2
3179,1
3180,1
3181,2
3182,2
3183,4
3184,2
3185,3
3186,2
3187,2
3188,2
3189,1
3190,2
3191,2
3192,1
3193,1
3194,1
3195,2
3196,7
3197,2
3198,1
3199,2
3200,4
3201,2
3202,1
3203,4
3204,7
3205,1
3206,5
3207,1
3208,7
3209,3
3210,4
3211,2
3212,2
3213,5
3214,1
3215,2
3216,1
3217,5
3218,2
3219,5
3220,4
3221,1
3222,7
3223,1
3224,1
3225,3
3226,6
3227,2
3228,1
3229,7
3230,1
3231,4
3232,2
3233,1
3234,3
3235,2
3236,5
3237,7
3238,3
3239,1
3240,4
3241,5
3242,7
3243,2
3244,7
3245,7
3246,2
3247,2
3248,4
3249,1
3250,1
3251,1
3252,1
3253,7
3254,7
3255,1
3256,4
3257,4
3258,5
3259,2
3260,1
3261,4
3262,1
3263,2
3264,5
3265,1
3266,1
3267,7
3268,1
3269,4
3270,2
3271,2
3272,1
3273,1
3274,2
3275,7
3276,1
3277,4
3278,2
3279,1
3280,1
3281,5
3282,7
3283,7
3284,1
3285,2
3286,4
3287,3
3288,1
3289,7
3290,5
3291,7
3292,2
3293,6
3294,1
3295,7
3296,1
3297,2
3298,1
3299,3
3300,6
3301,7
3302,7
3303,2
3304,1
3305,7
3306,1
3307,3
3308,1
3309,2
3310,2
3311,1
3312,1
3313,5
3314,4
3315,7
3316,7
3317,7
3318,7
3319,2
3320,2
3321,1
3322,1
3323,1
3324,7
3325,1
3326,7
3327,1
3328,7
3329,2
3330,5
3331,1
3332,4
3333,1
3334,2
3335,1
3336,7
3337,4
3338,4
3339,3
3340,4
3341,1
3342,1
3343,7
3344,7
3345,2
3346,7
3347,2
3348,4
3349,1
3350,1
3351,1
3352,2
3353,4
3354,1
3355,5
3356,5
3357,2
3358,3
3359,7
3360,2
3361,5
3362,5
3363,2
3364,1
3365,2
3366,1
3367,2
3368,5
3369,1
3370,2
3371,4
3372,2
3373,2
3374,1
3375,5
3376,7
3377,1
3378,4
3379,4
3380,1
3381,7
3382,2
3383,4
3384,1
3385,5
3386,2
3387,2
3388,1
3389,2
3390,4
3391,7
3392,1
3393,1
3394,1
3395,2
3396,2
3397,1
3398,4
3399,1
3400,1
3401,2
3402,2
3403,1
3404,2
3405,1
3406,4
3407,1
3408,2
3409,1
3410,1
3411,2
3412,2
3413,2
3414,1
3415,1
3416,7
3417,7
3418,1
3419,1
3420,5
3421,3
3422,5
3423,2
3424,2
3425,2
3426,2
3427,4
3428,4
3429,7
3430,5
3431,2
3432,5
3433,1
3434,2
3435,2
3436,1
3437,5
3438,5
3439,5
3440,7
3441,1
3442,3
3443,3
3444,3
3445,3
3446,1
3447,2
3448,2
3449,2
3450,7
3451,2
3452,1
3453,2
3454,7
3455,7
3456,2
3457,1
3458,1
3459,7
3460,1
3461,3
3462,2
3463,2
3464,7
3465,1
3466,1
3467,2
3468,7
3469,1
3470,1
3471,1
3472,1
3473,5
3474,2
3475,1
3476,2
3477,2
3478,2
3479,7
3480,2
3481,1
3482,2
3483,2
3484,1
3485,2
3486,1
3487,1
3488,7
3489,7
3490,7
3491,2
3492,5
3493,2
3494,1
3495,2
3496,2
3497,1
3498,5
3499,7
3500,1
3501,2
3502,2
3503,1
3504,2
3505,1
3506,2
3507,5
3508,2
3509,4
3510,5
3511,4
3512,5
3513,4
3514,6
3515,1
3516,6
3517,2
3518,2
3519,1
3520,1
3521,5
3522,5
3523,1
3524,2
3525,2
3526,1
3527,2
3528,1
3529,2
3530,1
3531,1
3532,4
3533,7
3534,2
3535,3
3536,4
3537,1
3538,2
3539,3
3540,1
3541,2
3542,7
3543,1
3544,1
3545,7
3546,2
3547,5
3548,4
3549,2
3550,4
3551,3
3552,2
3553,2
3554,1
3555,1
3556,1
3557,2
3558,7
3559,1
3560,4
3561,2
3562,4
3563,2
3564,7
3565,7
3566,4
3567,1
3568,1
3569,1
3570,1
3571,3
3572,3
3573,7
3574,4
3575,2
3576,7
3577,2
3578,2
3579,2
3580,1
3581,3
3582,3
3583,3
3584,2
3585,7
3586,2
3587,4
3588,3
3589,5
3590,3
3591,1
3592,3
3593,1
3594,1
3595,1
3596,3
3597,1
3598,5
3599,5
3600,2
3601,1
3602,1
3603,1
3604,2
3605,1
3606,4
3607,1
3608,3
3609,1
3610,2
3611,2
3612,4
3613,2
3614,3
3615,2
3616,1
3617,3
3618,1
3619,1
3620,2
3621,1
3622,2
3623,1
3624,7
3625,5
3626,2
3627,2
3628,2
3629,1
3630,2
3631,2
3632,5
3633,1
3634,1
3635,1
3636,2
3637,2
3638,2
3639,5
3640,4
3641,2
3642,7
3643,1
3644,1
3645,3
3646,5
3647,2
3648,1
3649,2
3650,5
3651,2
3652,2
3653,1
3654,5
3655,5
3656,2
3657,2
3658,2
3659,4
3660,2
3661,2
3662,5
3663,5
3664,2
3665,2
3666,7
3667,2
3668,1
3669,4
3670,2
3671,2
3672,2
3673,1
3674,5
3675,2
3676,5
3677,2
3678,1
3679,7
3680,3
3681,5
3682,1
3683,2
3684,1
3685,5
3686,2
3687,7
3688,7
3689,1
3690,1
3691,2
3692,2
3693,5
3694,2
3695,1
3696,2
3697,4
3698,2
3699,2
3700,7
3701,5
3702,1
3703,1
3704,2
3705,2
3706,1
3707,2
3708,1
3709,2
3710,1
3711,2
3712,4
3713,2
3714,1
3715,1
3716,4
3717,2
3718,4
3719,1
3720,4
3721,1
3722,2
3723,1
3724,7
3725,2
3726,4
3727,1
3728,3
3729,1
3730,2
3731,2
3732,4
3733,1
3734,1
3735,2
3736,4
3737,2
3738,2
3739,2
3740,1
3741,4
3742,1
3743,3
3744,1
3745,4
3746,2
3747,7
3748,1
3749,1
3750,1
3751,5
3752,1
3753,2
3754,2
3755,1
3756,3
3757,7
3758,1
3759,2
3760,2
3761,7
3762,1
3763,2
3764,2
3765,7
3766,2
3767,2
3768,2
3769,3
3770,2
3771,6
3772,2
3773,2
3774,2
3775,1
3776,2
3777,5
3778,2
3779,2
3780,5
3781,1
3782,1
3783,1
3784,1
3785,5
3786,4
3787,2
3788,2
3789,4
3790,1
3791,2
3792,7
3793,7
3794,7
3795,1
3796,7
3797,1
3798,2
3799,2
3800,2
3801,1
3802,2
3803,2
3804,2
3805,7
3806,2
3807,2
3808,1
3809,5
3810,1
3811,3
3812,3
3813,7
3814,4
3815,4
3816,1
3817,7
3818,5
3819,7
3820,2
3821,1
3822,2
3823,2
3824,7
3825,2
3826,7
3827,2
3828,1
3829,4
3830,1
3831,1
3832,7
3833,1
3834,2
3835,7
3836,1
3837,2
3838,5
3839,2
3840,2
3841,1
3842,1
3843,1
3844,5
3845,5
3846,2
3847,2
3848,1
3849,2
3850,2
3851,5
3852,3
3853,4
3854,4
3855,1
3856,1
3857,3
3858,1
3859,7
3860,2
3861,1
3862,2
3863,3
3864,1
3865,5
3866,1
3867,1
3868,7
3869,1
3870,1
3871,5
3872,3
3873,7
3874,5
3875,4
3876,2
3877,1
3878,2
3879,1
3880,3
3881,2
3882,1
3883,5
3884,2
3885,1
3886,1
3887,1
3888,1
3889,7
3890,5
3891,1
3892,7
3893,2
3894,2
3895,3
3896,2
3897,2
3898,1
3899,4
3900,1
3901,2
3902,3
3903,2
3904,1
3905,1
3906,3
3907,2
3908,2
3909,2
3910,2
3911,3
3912,2
3913,1
3914,7
3915,7
3916,7
3917,5
3918,1
3919,7
3920,1
3921,1
3922,2
3923,1
3924,2
3925,1
3926,2
3927,7
3928,2
3929,1
3930,2
3931,2
3932,3
3933,1
3934,2
3935,4
3936,2
3937,1
3938,2
3939,5
3940,2
3941,2
3942,3
3943,1
3944,2
3945,1
3946,2
3947,4
3948,3
3949,2
3950,2
3951,1
3952,2
3953,2
3954,7
3955,1
3956,7
3957,1
3958,1
3959,2
3960,3
3961,2
3962,1
3963,4
3964,2
3965,1
3966,1
3967,5
3968,1
3969,4
3970,1
3971,3
3972,1
3973,4
3974,7
3975,1
3976,2
3977,4
3978,1
3979,2
3980,1
3981,1
3982,2
3983,2
3984,2
3985,7
3986,4
3987,1
3988,1
3989,2
3990,1
3991,2
3992,1
3993,1
3994,1
3995,5
3996,5
3997,1
3998,2
3999,1
4000,7
4001,1
4002,3
4003,5
4004,7
4005,4
4006,7
4007,5
4008,2
4009,1
4010,1
4011,1
4012,2
4013,2
4014,2
4015,7
4016,1
4017,1
4018,1
4019,1
4020,2
4021,1
4022,2
4023,2
4024,2
4025,2
4026,1
4027,2
4028,2
4029,1
4030,2
4031,4
4032,1
4033,4
4034,1
4035,1
4036,1
4037,2
4038,2
4039,3
4040,4
4041,4
4042,1
4043,1
4044,1
4045,1
4046,2
4047,3
4048,1
4049,7
4050,2
4051,1
4052,7
4053,3
4054,2
4055,1
4056,1
4057,7
4058,2
4059,2
4060,4
4061,2
4062,2
4063,2
4064,2
4065,2
4066,1
4067,1
4068,3
4069,2
4070,2
4071,1
4072,2
4073,1
4074,2
4075,7
4076,1
4077,7
4078,1
4079,2
4080,1
4081,1
4082,1
4083,2
4084,5
4085,1
4086,7
4087,7
4088,1
4089,3
4090,2
4091,2
4092,2
4093,4
4094,5
4095,2
4096,2
4097,1
4098,3
4099,1
4100,1
4101,2
4102,1
4103,2
4104,2
4105,4
4106,4
4107,1
4108,1
4109,4
4110,5
4111,1
4112,2
4113,1
4114,2
4115,7
4116,7
4117,2
4118,2
4119,2
4120,2
4121,1
4122,2
4123,2
4124,2
4125,2
4126,1
4127,1
4128,7
4129,2
4130,1
4131,1
4132,4
4133,4
4134,2
4135,6
4136,1
4137,1
4138,2
4139,2
4140,1
4141,2
4142,5
4143,1
4144,2
4145,2
4146,1
4147,1
4148,2
4149,2
4150,1
4151,7
4152,1
4153,2
4154,2
4155,2
4156,1
4157,1
4158,2
4159,5
4160,1
4161,1
4162,1
4163,4
4164,2
4165,5
4166,1
4167,4
4168,5
4169,2
4170,2
4171,7
4172,7
4173,2
4174,7
4175,1
4176,1
4177,4
4178,2
4179,2
4180,1
4181,4
4182,7
4183,1
4184,2
4185,2
4186,2
4187,3
4188,7
4189,1
4190,1
4191,4
4192,4
4193,2
4194,5
4195,1
4196,2
4197,4
4198,2
4199,2
4200,2
4201,5
4202,2
4203,1
4204,1
4205,2
4206,2
4207,2
4208,2
4209,5
4210,2
4211,2
4212,1
4213,3
4214,1
4215,7
4216,2
4217,2
4218,1
4219,2
4220,7
4221,7
4222,7
4223,2
4224,1
4225,2
4226,1
4227,2
4228,1
4229,2
4230,1
4231,1
4232,2
4233,1
4234,5
4235,1
4236,2
4237,5
4238,1
4239,2
4240,4
4241,3
4242,1
4243,1
4244,4
4245,5
4246,2
4247,1
4248,3
4249,2
4250,1
4251,1
4252,2
4253,2
4254,1
4255,1
4256,2
4257,1
4258,2
4259,2
4260,1
4261,1
4262,7
4263,1
4264,2
4265,2
4266,6
4267,2
4268,3
4269,2
4270,2
4271,1
4272,5
4273,2
4274,4
4275,2
4276,1
4277,2
4278,2
4279,1
4280,1
4281,1
4282,2
4283,1
4284,3
4285,4
4286,4
4287,1
4288,5
4289,1
4290,1
4291,1
4292,2
4293,1
4294,1
4295,2
4296,2
4297,1
4298,1
4299,7
4300,2
4301,4
4302,2
4303,7
4304,5
4305,1
4306,4
4307,3
4308,7
4309,1
4310,7
4311,2
4312,1
4313,1
4314,7
4315,2
4316,1
4317,2
4318,1
4319,1
4320,2
4321,2
4322,3
4323,4
4324,1
4325,1
4326,1
4327,1
4328,2
4329,4
4330,1
4331,2
4332,7
4333,4
4334,2
4335,4
4336,1
4337,7
4338,1
4339,1
4340,5
4341,2
4342,2
4343,1
4344,1
4345,7
4346,2
4347,1
4348,7
4349,1
4350,1
4351,4
4352,1
4353,1
4354,2
4355,2
4356,2
4357,2
4358,1
4359,2
4360,2
4361,3
4362,5
4363,1
4364,2
4365,1
4366,3
4367,7
4368,1
4369,1
4370,7
4371,4
4372,2
4373,2
4374,2
4375,1
4376,7
4377,7
4378,5
4379,1
4380,1
4381,7
4382,2
4383,5
4384,5
4385,5
4386,1
4387,2
4388,7
4389,1
4390,2
4391,2
4392,7
4393,2
4394,5
4395,7
4396,2
4397,2
4398,1
4399,5
4400,5
4401,1
4402,2
4403,1
4404,2
4405,1
4406,5
4407,2
4408,1
4409,5
4410,1
4411,4
4412,2
4413,2
4414,2
4415,1
4416,7
4417,7
4418,4
4419,2
4420,4
4421,7
4422,1
4423,1
4424,4
4425,7
4426,2
4427,7
4428,7
4429,5
4430,2
4431,1
4432,7
4433,2
4434,1
4435,2
4436,4
4437,2
4438,2
4439,2
4440,1
4441,2
4442,5
4443,1
4444,1
4445,1
4446,1
4447,1
4448,1
4449,1
4450,5
4451,1
4452,1
4453,2
4454,5
4455,2
4456,5
4457,3
4458,7
4459,2
4460,5
4461,1
4462,1
4463,2
4464,2
4465,3
4466,4
4467,2
4468,2
4469,1
4470,2
4471,2
4472,2
4473,1
4474,1
4475,3
4476,1
4477,1
4478,2
4479,1
4480,1
4481,2
4482,1
4483,2
4484,7
4485,1
4486,7
4487,2
4488,1
4489,2
4490,2
4491,2
4492,2
4493,1
4494,1
4495,1
4496,3
4497,1
4498,2
4499,1
4500,7
4501,5
4502,5
4503,5
4504,2
4505,1
4506,1
4507,2
4508,2
4509,5
4510,7
4511,1
4512,2
4513,3
4514,7
4515,2
4516,1
4517,5
4518,2
4519,1
4520,2
4521,7
4522,5
4523,1
4524,2
4525,1
4526,1
4527,1
4528,4
4529,2
4530,4
4531,4
4532,5
4533,4
4534,1
4535,1
4536,4
4537,2
4538,2
4539,2
4540,2
4541,3
4542,3
4543,2
4544,5
4545,2
4546,2
4547,3
4548,4
4549,4
4550,5
4551,2
4552,5
4553,2
4554,7
4555,2
4556,5
4557,7
4558,1
4559,4
4560,7
4561,2
4562,2
4563,4
4564,2
4565,2
4566,1
4567,1
4568,5
4569,2
4570,5
4571,1
4572,5
4573,7
4574,1
4575,2
4576,1
4577,1
4578,2
4579,2
4580,3
4581,2
4582,2
4583,6
4584,1
4585,7
4586,1
4587,1
4588,1
4589,2
4590,5
4591,2
4592,4
4593,4
4594,2
4595,1
4596,7
4597,2
4598,5
4599,2
4600,2
4601,2
4602,2
4603,2
4604,7
4605,1
4606,7
4607,3
4608,1
4609,1
4610,3
4611,2
4612,5
4613,1
4614,4
4615,1
4616,2
4617,3
4618,1
4619,3
4620,1
4621,3
4622,5
4623,3
4624,2
4625,7
4626,1
4627,2
4628,1
4629,4
4630,1
4631,2
4632,2
4633,2
4634,7
4635,3
4636,7
4637,3
4638,7
4639,1
4640,4
4641,2
4642,1
4643,1
4644,7
4645,1
4646,2
4647,1
4648,4
4649,5
4650,2
4651,2
4652,2
4653,2
4654,4
4655,1
4656,2
4657,2
4658,2
4659,4
4660,1
4661,1
4662,1
4663,2
4664,1
4665,3
4666,1
4667,4
4668,1
4669,7
4670,1
4671,7
4672,2
4673,2
4674,2
4675,4
4676,1
4677,1
4678,2
4679,7
4680,2
4681,1
4682,2
4683,2
4684,2
4685,3
4686,2
4687,1
4688,4
4689,2
4690,4
4691,7
4692,2
4693,5
4694,7
4695,1
4696,2
4697,2
4698,2
4699,2
4700,2
4701,1
4702,2
4703,1
4704,1
4705,1
4706,1
4707,2
4708,3
4709,1
4710,7
4711,5
4712,2
4713,7
4714,5
4715,5
4716,3
4717,2
4718,5
4719,2
4720,2
4721,1
4722,7
4723,2
4724,1
4725,2
4726,1
4727,2
4728,1
4729,2
4730,7
4731,1
4732,2
4733,2
4734,2
4735,1
4736,1
4737,7
4738,4
4739,7
4740,6
4741,1
4742,4
4743,4
4744,3
4745,7
4746,2
4747,2
4748,2
4749,7
4750,7
4751,2
4752,1
4753,7
4754,3
4755,3
4756,1
4757,6
4758,1
4759,2
4760,3
4761,2
4762,7
4763,1
4764,1
4765,2
4766,2
4767,2
4768,2
4769,7
4770,1
4771,1
4772,1
4773,2
4774,2
4775,7
4776,2
4777,4
4778,7
4779,2
4780,1
4781,1
4782,1
4783,7
4784,4
4785,1
4786,2
4787,4
4788,2
4789,2
4790,2
4791,1
4792,3
4793,4
4794,2
4795,2
4796,2
4797,2
4798,7
4799,7
4800,5
4801,2
4802,3
4803,2
4804,3
4805,1
4806,4
4807,3
4808,2
4809,2
4810,1
4811,1
4812,7
4813,1
4814,5
4815,1
4816,2
4817,3
4818,2
4819,2
4820,7
4821,1
4822,1
4823,1
4824,7
4825,5
4826,1
4827,2
4828,3
4829,1
4830,3
4831,5
4832,1
4833,1
4834,2
4835,7
4836,2
4837,2
4838,5
4839,1
4840,7
4841,2
4842,2
4843,5
4844,2
4845,2
4846,2
4847,7
4848,5
4849,4
4850,7
4851,2
4852,2
4853,1
4854,1
4855,5
4856,2
4857,2
4858,7
4859,2
4860,7
4861,1
4862,7
4863,2
4864,1
4865,2
4866,2
4867,2
4868,5
4869,1
4870,1
4871,7
4872,2
4873,1
4874,1
4875,4
4876,7
4877,5
4878,4
4879,1
4880,2
4881,7
4882,1
4883,3
4884,5
4885,3
4886,1
4887,7
4888,2
4889,1
4890,7
4891,2
4892,1
4893,5
4894,2
4895,1
4896,4
4897,1
4898,7
4899,2
4900,1
4901,2
4902,1
4903,7
4904,1
4905,2
4906,1
4907,2
4908,2
4909,1
4910,7
4911,2
4912,1
4913,7
4914,5
4915,3
4916,1
4917,5
4918,2
4919,2
4920,1
4921,2
4922,2
4923,1
4924,2
4925,1
4926,5
4927,1
4928,3
4929,3
4930,1
4931,4
4932,3
4933,4
4934,2
4935,2
4936,2
4937,2
4938,2
4939,1
4940,3
4941,2
4942,2
4943,7
4944,2
4945,3
4946,2
4947,2
4948,4
4949,3
4950,2
4951,7
4952,7
4953,5
4954,2
4955,4
4956,1
4957,5
4958,1
4959,2
4960,1
4961,1
4962,2
4963,1
4964,1
4965,5
4966,7
4967,1
4968,5
4969,1
4970,3
4971,1
4972,3
4973,2
4974,7
4975,2
4976,2
4977,2
4978,3
4979,2
4980,2
4981,1
4982,4
4983,5
4984,1
4985,4
4986,3
4987,7
4988,2
4989,1
4990,1
4991,2
4992,1
4993,4
4994,1
4995,4
4996,1
4997,2
4998,2
4999,1
5000,7
5001,2
5002,2
5003,7
5004,2
5005,2
5006,4
5007,4
5008,3
5009,2
5010,5
5011,2
5012,2
5013,1
5014,2
5015,1
5016,2
5017,2
5018,2
5019,1
5020,2
5021,7
5022,2
5023,2
5024,2
5025,7
5026,4
5027,3
5028,2
5029,2
5030,2
5031,3
5032,1
5033,7
5034,2
5035,2
5036,1
5037,5
5038,2
5039,2
5040,1
5041,2
5042,4
5043,2
5044,2
5045,7
5046,2
5047,7
5048,1
5049,2
5050,2
5051,1
5052,1
5053,1
5054,2
5055,1
5056,4
5057,1
5058,1
5059,5
5060,5
5061,5
5062,1
5063,2
5064,1
5065,7
5066,2
5067,1
5068,2
5069,1
5070,2
5071,3
5072,7
5073,2
5074,1
5075,1
5076,1
5077,1
5078,5
5079,1
5080,2
5081,5
5082,3
5083,4
5084,5
5085,2
5086,1
5087,1
5088,3
5089,2
5090,5
5091,7
5092,1
5093,2
5094,3
5095,2
5096,7
5097,1
5098,1
5099,1
5100,1
5101,4
5102,1
5103,7
5104,3
5105,1
5106,1
5107,2
5108,7
5109,1
5110,2
5111,2
5112,1
5113,1
5114,2
5115,1
5116,7
5117,1
5118,4
5119,1
5120,1
5121,2
5122,5
5123,1
5124,1
5125,3
5126,2
5127,2
5128,1
5129,5
5130,3
5131,2
5132,1
5133,3
5134,2
5135,2
5136,5
5137,1
5138,1
5139,4
5140,2
5141,7
5142,1
5143,1
5144,1
5145,2
5146,2
5147,1
5148,2
5149,5
5150,2
5151,1
5152,2
5153,7
5154,2
5155,7
5156,5
